verifyEndToEndFlow	Passed                                                                           
verifyCreditScoreFailTest	Passed                                                                    
verifyDeclinedAppTest	Passed                                                                        
verifyHappyFlowWithManualUpload	Passed                                                              
verifyRestrictedIndustryTest	Passed                                                                 
